^D:\PROJECTS\GFXPROG\OPENGLTEST2\OPENGLTEST2\DEBUG\INIT.OBJ|D:\PROJECTS\GFXPROG\OPENGLTEST2\OPENGLTEST2\DEBUG\PACMAN.OBJ|D:\PROJECTS\GFXPROG\OPENGLTEST2\OPENGLTEST2\DEBUG\SHADERS.OBJ|D:\PROJECTS\GFXPROG\OPENGLTEST2\OPENGLTEST2\DEBUG\SOURCE.OBJ|D:\PROJECTS\GFXPROG\OPENGLTEST2\OPENGLTEST2\DEBUG\STB_IMAGE.OBJ|D:\PROJECTS\GFXPROG\OPENGLTEST2\OPENGLTEST2\DEBUG\TEXTURE.OBJ|D:\PROJECTS\GFXPROG\OPENGLTEST2\OPENGLTEST2\DEBUG\WALL.OBJ
C:\WINDOWS\GLOBALIZATION\SORTING\SORTDEFAULT.NLS
D:\PROJECTS\CONSOLEAPPLICATION1\DEPENDENCIES\SDL2-2.0.7\LIB\X86\SDL2.LIB
D:\PROJECTS\CONSOLEAPPLICATION1\DEPENDENCIES\SDL2-2.0.7\LIB\X86\SDL2MAIN.LIB
D:\PROJECTS\CONSOLEAPPLICATION1\DEPENDENCIES\GLFW-3.2.1.BIN.WIN32\LIB-VC2015\GLFW3.LIB
D:\PROJECTS\CONSOLEAPPLICATION1\DEPENDENCIES\GLFW-3.2.1.BIN.WIN32\LIB-VC2015\GLFW3DLL.LIB
D:\PROJECTS\CONSOLEAPPLICATION1\DEPENDENCIES\GLEW-2.1.0\LIB\RELEASE\WIN32\GLEW32.LIB
C:\PROGRAM FILES (X86)\WINDOWS KITS\10\LIB\10.0.16299.0\UM\X86\OPENGL32.LIB
C:\PROGRAM FILES (X86)\WINDOWS KITS\10\LIB\10.0.16299.0\UM\X86\KERNEL32.LIB
C:\PROGRAM FILES (X86)\WINDOWS KITS\10\LIB\10.0.16299.0\UM\X86\USER32.LIB
C:\PROGRAM FILES (X86)\WINDOWS KITS\10\LIB\10.0.16299.0\UM\X86\GDI32.LIB
C:\PROGRAM FILES (X86)\WINDOWS KITS\10\LIB\10.0.16299.0\UM\X86\WINSPOOL.LIB
C:\PROGRAM FILES (X86)\WINDOWS KITS\10\LIB\10.0.16299.0\UM\X86\COMDLG32.LIB
C:\PROGRAM FILES (X86)\WINDOWS KITS\10\LIB\10.0.16299.0\UM\X86\ADVAPI32.LIB
C:\PROGRAM FILES (X86)\WINDOWS KITS\10\LIB\10.0.16299.0\UM\X86\SHELL32.LIB
C:\PROGRAM FILES (X86)\WINDOWS KITS\10\LIB\10.0.16299.0\UM\X86\OLE32.LIB
C:\PROGRAM FILES (X86)\WINDOWS KITS\10\LIB\10.0.16299.0\UM\X86\OLEAUT32.LIB
C:\PROGRAM FILES (X86)\WINDOWS KITS\10\LIB\10.0.16299.0\UM\X86\UUID.LIB
C:\PROGRAM FILES (X86)\WINDOWS KITS\10\LIB\10.0.16299.0\UM\X86\ODBC32.LIB
C:\PROGRAM FILES (X86)\WINDOWS KITS\10\LIB\10.0.16299.0\UM\X86\ODBCCP32.LIB
D:\PROJECTS\GFXPROG\OPENGLTEST2\OPENGLTEST2\DEBUG\PACMAN.OBJ
D:\PROJECTS\GFXPROG\OPENGLTEST2\OPENGLTEST2\DEBUG\SHADERS.OBJ
D:\PROJECTS\GFXPROG\OPENGLTEST2\OPENGLTEST2\DEBUG\SOURCE.OBJ
D:\PROJECTS\GFXPROG\OPENGLTEST2\OPENGLTEST2\DEBUG\STB_IMAGE.OBJ
D:\PROJECTS\GFXPROG\OPENGLTEST2\OPENGLTEST2\DEBUG\TEXTURE.OBJ
D:\PROJECTS\GFXPROG\OPENGLTEST2\OPENGLTEST2\DEBUG\WALL.OBJ
D:\PROJECTS\GFXPROG\OPENGLTEST2\OPENGLTEST2\DEBUG\INIT.OBJ
C:\WINDOWS\SYSTEM32\TZRES.DLL
C:\PROGRAM FILES (X86)\MICROSOFT VISUAL STUDIO\2017\COMMUNITY\VC\TOOLS\MSVC\14.12.25827\LIB\X86\MSVCPRTD.LIB
C:\PROGRAM FILES (X86)\MICROSOFT VISUAL STUDIO\2017\COMMUNITY\VC\TOOLS\MSVC\14.12.25827\LIB\X86\MSVCRTD.LIB
C:\PROGRAM FILES (X86)\MICROSOFT VISUAL STUDIO\2017\COMMUNITY\VC\TOOLS\MSVC\14.12.25827\LIB\X86\OLDNAMES.LIB
C:\PROGRAM FILES (X86)\MICROSOFT VISUAL STUDIO\2017\COMMUNITY\VC\TOOLS\MSVC\14.12.25827\LIB\X86\MSVCRT.LIB
C:\PROGRAM FILES (X86)\MICROSOFT VISUAL STUDIO\2017\COMMUNITY\VC\TOOLS\MSVC\14.12.25827\LIB\X86\VCRUNTIMED.LIB
C:\PROGRAM FILES (X86)\WINDOWS KITS\10\LIB\10.0.16299.0\UCRT\X86\UCRTD.LIB
